{
  "functionalErrors": [
    {
      "alias": "amountGreaterThanLimit",
      "description": "Exceeded limit operation"
    },
    {
      "alias": "notEnoughBalance",
      "description": "There is not enough balance to perform operation"
    },
    {
      "alias": "differentAccountHolders",
      "description": "The account holder indicated is not correct"
    }
  ]
}
